<svg version="1.1" id="arrow_left" x="0px" y="0px"
	 viewBox="0 0 39.7 75.2" style="enable-background:new 0 0 39.7 75.2;" xml:space="preserve">
<polyline class="st0" style="opacity:1;fill:none;stroke:#B2B2B2;stroke-width:2;stroke-linecap:round;stroke-linejoin:round;stroke-miterlimit:10;" points="37.6,2 2,37.6 37.7,73.2 "/>
</svg>